Physical Activity Data Analysis
…
##    No   Yes 
## 12960  4608

let’s plot the interval pattern for weekdays and weekends. First I will define the imp_interval dataframe, grouped by both interval and weekends, and calculate the mean for each interval based on weekdays/weekends (weekend = Yes/No). and then I will define two separate dataframes for each level: imp_interval_wknd and imp_interval_wkday.

imp_interval <- imputed_data %>% group_by(interval, weekend) %>% summarise(Mean = mean(steps))

## `summarise()` has grouped output by 'interval'. You
## can override using the `.groups` argument.

imp_interval_wknd <- imp_interval[imp_interval$weekend == "Yes",]
imp_interval_wkday <- imp_interval[imp_interval$weekend == "No",]
rbind(head(imp_interval_wkday), imp_interval_wknd)

## # A tibble: 294 × 3
## # Groups:   interval [288]
##    interval weekend   Mean
##       <int> <chr>    <dbl>
##  1        0 No      2.25  
##  2        5 No      0.445 
##  3       10 No      0.173 
##  4       15 No      0.198 
##  5       20 No      0.0990
##  6       25 No      1.59  
##  7        0 Yes     0.215 
##  8        5 Yes     0.0425
##  9       10 Yes     0.0165
## 10       15 Yes     0.0189
## # ℹ 284 more rows
…
